<svg width="10" height="19" viewBox="0 0 10 19" fill="none" xmlns="http://www.w3.org/2000/svg">
<path d="M6.08675 18.4167H3.40636C2.95865 18.4167 2.59445 18.0377 2.59445 17.5718V11.2808H1.03066C0.582946 11.2808 0.21875 10.9017 0.21875 10.436V7.74027C0.21875 7.2744 0.582946 6.89543 1.03066 6.89543H2.59445V5.54551C2.59445 4.20703 2.99836 3.06826 3.76238 2.25251C4.52985 1.43305 5.60239 1 6.86405 1L8.90825 1.00345C9.35519 1.00425 9.71875 1.38322 9.71875 1.8483V4.3512C9.71875 4.81707 9.35468 5.19604 8.9071 5.19604L7.53076 5.19657C7.11102 5.19657 7.00414 5.28414 6.98128 5.31098C6.94361 5.3555 6.89878 5.48133 6.89878 5.82881V6.89529H8.80366C8.94707 6.89529 9.086 6.9321 9.2054 7.00146C9.46297 7.15122 9.6231 7.43438 9.6231 7.7404L9.62208 10.4361C9.62208 10.9017 9.25788 11.2807 8.81017 11.2807H6.89878V17.5718C6.89878 18.0377 6.53446 18.4167 6.08675 18.4167ZM3.57569 17.3956H5.91742V10.8237C5.91742 10.5126 6.16069 10.2596 6.4595 10.2596H8.64085L8.64174 7.91646H6.45937C6.16056 7.91646 5.91742 7.66346 5.91742 7.3524V5.82881C5.91742 5.42991 5.95637 4.97626 6.24573 4.63529C6.59537 4.2231 7.14639 4.17553 7.53051 4.17553L8.73751 4.175V2.02423L6.86328 2.02104C4.83569 2.02104 3.57569 3.37162 3.57569 5.54551V7.3524C3.57569 7.66333 3.33255 7.91646 3.03373 7.91646H1.19998V10.2596H3.03373C3.33255 10.2596 3.57569 10.5126 3.57569 10.8237V17.3956ZM8.90633 2.02449H8.90646H8.90633Z" fill="#6B768C" stroke="#6B768C" stroke-width="0.4"/>
</svg>
