[
  {
    "id": 0,
    "link": "#",
    "img": ["img/exhibition@1x.jpg","img/exhibition@2x.jpg"],
    "date_start": "25 мар",
    "date_end": "5 апр",
    "title": "Выставка цитрусовых во Владивостоке. Выставка цитрусовых Владивосток",
    "address": "Ботанический сад, ул. Маковского, 142",
    "time-start": "10:00",
    "time-end": "17:00"
  },
  {
    "id": 0,
    "link": "#",
    "img": ["img/comedy-show@1x.jpg","img/comedy-show@2x.jpg"],
    "title": "Комедийное шоу импровизации improvl во Владивостоке. Комедийное шоу импровизации improvl во Владивостоке",
    "address": "Театр “Перекресток”, ул. Крыгина, 17"
  },
  {
    "id": 0,
    "link": "#",
    "img": ["img/poetic-night@1x.jpg","img/poetic-night@2x.jpg"],
    "date_start": "25 мар",
    "date_end": "5 апр",
    "title": "Поэтический вечер \"Лига Поэтов\"",
    "address": "Ботанический сад, ул. Маковского, 142",
    "time-start": "19:00"
  },
  {
    "id": 0,
    "link": "#",
    "img": ["img/concert@1x.jpg","img/concert@2x.jpg"],
    "date_start": "25 мар",
    "date_end": "5 апр",
    "title": "Комедийное шоу импровизации improvl во Владивостоке. Комедийное шоу импровизации improvl во Владивостоке",
    "address": "Театр “Перекресток”, ул. Крыгина, 17"
  }
]
